/Users/skylerbellwood/Desktop/Home/Development/Spring/springframeworkguru-petclinic/pet-clinic-web/src/main/java/com/sfg/springframeworkgurupetclinic/controllers/IndexController.java
/Users/skylerbellwood/Desktop/Home/Development/Spring/springframeworkguru-petclinic/pet-clinic-web/src/main/java/com/sfg/springframeworkgurupetclinic/controllers/VetController.java
/Users/skylerbellwood/Desktop/Home/Development/Spring/springframeworkguru-petclinic/pet-clinic-web/src/main/java/com/sfg/springframeworkgurupetclinic/bootstrap/DataLoader.java
/Users/skylerbellwood/Desktop/Home/Development/Spring/springframeworkguru-petclinic/pet-clinic-web/src/main/java/com/sfg/springframeworkgurupetclinic/controllers/OwnerController.java
/Users/skylerbellwood/Desktop/Home/Development/Spring/springframeworkguru-petclinic/pet-clinic-web/src/main/java/com/sfg/springframeworkgurupetclinic/SpringframeworkguruPetclinicApplication.java
